; Engine configuration file.
; It's best edited using the editor UI and not directly,
; since the parameters that go here are not all obvious.
;
; Format:
;   [section] ; section goes between []
;   param=value ; assign values to parameters

config_version=4

_global_script_classes=[  ]
_global_script_class_icons={

}

[application]

config/name="Ormer"
run/main_scene="res://scenes/main.tscn"
boot_splash/image="res://textures/splash.png"
boot_splash/bg_color=Color( 0.337255, 0.337255, 0.337255, 1 )
config/icon="res://icon.png"

[autoload]

grid_manager="*res://scripts/autoload/grid_manager.gd"
player_manager="*res://scripts/autoload/player_manager.gd"

[display]

window/size/width=1280
window/size/height=720

[rendering]

quality/filters/msaa=2
environment/default_environment="res://env/color_bg.tres"
