<?xml version="1.0" encoding="utf-8"?>
<COLLADA xmlns="http://www.collada.org/2005/11/COLLADASchema" version="1.4.1" xmlns:xsi="http://www.w3.org/2001/XMLSchema-instance">
  <asset>
    <contributor>
      <author>Blender User</author>
      <authoring_tool>Blender 2.80.75 commit date:2019-07-29, commit time:14:47, hash:f6cb5f54494e</authoring_tool>
    </contributor>
    <created>2020-01-03T18:20:53</created>
    <modified>2020-01-03T18:20:53</modified>
    <unit name="meter" meter="1"/>
    <up_axis>Z_UP</up_axis>
  </asset>
  <library_images/>
  <library_geometries>
    <geometry id="Text_002-mesh" name="Text.002">
      <mesh>
        <source id="Text_002-mesh-positions">
          <float_array id="Text_002-mesh-positions-array" count="228">3.25 0.7500001 0.5 3.25 0 0.4999848 3.5 0 0.5 3.5 0.7500001 0.4999848 2.75 0.7500001 0.5 2.75 0 0.4999848 3 0 0.5 3 0.7500001 0.4999848 3.114 0.5 0.5 3.114 0.25 0.5 3.135 0.25 0.5 3.135 0.5 0.5 1.75 0.7500001 0.5 1.75 0.25 0.5 2.479 0.25 0.5 2.479 0.01999998 0.5 2 0.01999998 0.5 2 0 0.5 2.5 0 0.5 2.5 0.5 0.5 1.77 0.5 0.5 1.77 0.729 0.5 2.25 0.729 0.5 2.25 0.7500001 0.5 1 0.7500001 0.5 1 0 0.5 1.5 0 0.5 1.5 0.7500001 0.5 1.479 0.7500001 0.5 1.479 0.01999998 0.5 1.25 0.01999998 0.5 1.25 0.7500001 0.4999848 0 0.7500001 0.5 0 0 0.4999848 0.01999998 0 0.5 0.01999998 0.25 0.5 0.7500001 0.25 0.5 0.7500001 0.7500001 0.5 3.25 0.7500001 0 3.25 0 0 3.5 0 0 3.5 0.7500001 0 2.75 0.7500001 0 2.75 0 0 3 0 0 3 0.7500001 0 3.114 0.5 0 3.114 0.25 0 3.135 0.25 0 3.135 0.5 0 1.75 0.7500001 0 1.75 0.25 0 2.479 0.25 0 2.479 0.01999998 0 2 0.01999998 0 2 0 0 2.5 0 0 2.5 0.5 0 1.77 0.5 0 1.77 0.729 0 2.25 0.729 0 2.25 0.7500001 0 1 0.7500001 0 1 0 0 1.5 0 0 1.5 0.7500001 0 1.479 0.7500001 0 1.479 0.01999998 0 1.25 0.01999998 0 1.25 0.7500001 0 0 0.7500001 0 0 0 0 0.01999998 0 0 0.01999998 0.25 0 0.7500001 0.25 0 0.7500001 0.7500001 0</float_array>
          <technique_common>
            <accessor source="#Text_002-mesh-positions-array" count="76" stride="3">
              <param name="X" type="float"/>
              <param name="Y" type="float"/>
              <param name="Z" type="float"/>
            </accessor>
          </technique_common>
        </source>
        <source id="Text_002-mesh-normals">
          <float_array id="Text_002-mesh-normals-array" count="36">6.10351e-5 -2.03451e-5 1 -6.10351e-5 2.03451e-5 1 0 0 1 6.10351e-5 0 1 -1.633e-6 2.09025e-5 1 -5.08626e-4 -2.03451e-5 0.9999999 -7.62939e-4 0 0.9999997 0 0 -1 -1 0 0 0 1 0 0 -1 0 1 0 0</float_array>
          <technique_common>
            <accessor source="#Text_002-mesh-normals-array" count="12" stride="3">
              <param name="X" type="float"/>
              <param name="Y" type="float"/>
              <param name="Z" type="float"/>
            </accessor>
          </technique_common>
        </source>
        <source id="Text_002-mesh-map-0">
          <float_array id="Text_002-mesh-map-0-array" count="768">0.7857144 0.99997 0.857143 0.9999694 0.7857144 1 0.7857144 0.99997 0.857143 1 0.857143 0.9999694 0.8897144 1 0.8957144 1 0.8897144 1 0.8897144 1 0.8957144 1 0.8957144 1 0.9285715 0.99997 1 0.9999694 0.9285715 1 0.9285715 0.99997 1 1 1 0.9999694 0.5 1 0.5057144 1 0.5 1 0.5057144 1 0.6428572 1 0.5 1 0.5057144 1 0.6428572 1 0.6428572 1 0.5 1 0.5057144 1 0.5057144 1 0.5 1 0.7142858 1 0.5057144 1 0.5 1 0.7082858 1 0.7142858 1 0.7082858 1 0.7142858 1 0.7142858 1 0.7082858 1 0.7142858 1 0.7082858 1 0.5714286 1 0.7082858 1 0.5714286 1 0.5714286 1 0.7142858 1 0.7082858 1 0.2857143 1 0.3571429 0.9999694 0.2857143 1 0.2857143 1 0.3571429 1 0.3571429 0.9999694 0.4225715 1 0.4285714 1 0.4225715 1 0.4225715 1 0.4285714 1 0.4285714 1 0.2857143 1 0.4225715 1 0.3571429 1 0.2857143 1 0.4285714 1 0.4225715 1 0 0.99997 0.005714297 1 0 1 0.005714297 1 0.2142857 1 0 1 0.005714297 1 0.2142857 1 0.2142857 1 0 0.99997 0.005714297 1 0.005714297 1 0.7857144 0 0.7857144 0 0.857143 0 0.7857144 0 0.857143 0 0.857143 0 0.8897144 0 0.8897144 0 0.8957144 0 0.8897144 0 0.8957144 0 0.8957144 0 0.9285715 0 0.9285715 0 1 0 0.9285715 0 1 0 1 0 0.5 0 0.5 0 0.5057144 0 0.5057144 0 0.5 0 0.6428572 0 0.5057144 0 0.6428572 0 0.6428572 0 0.5 0 0.5057144 0 0.5057144 0 0.5 0 0.5057144 0 0.7142858 0 0.5 0 0.7142858 0 0.7082858 0 0.7082858 0 0.7142858 0 0.7142858 0 0.7082858 0 0.7082858 0 0.7142858 0 0.5714286 0 0.5714286 0 0.7082858 0 0.5714286 0 0.7082858 0 0.7142858 0 0.2857143 0 0.2857143 0 0.3571429 0 0.2857143 0 0.3571429 0 0.3571429 0 0.4225715 0 0.4225715 0 0.4285714 0 0.4225715 0 0.4285714 0 0.4285714 0 0.2857143 0 0.3571429 0 0.4225715 0 0.2857143 0 0.4225715 0 0.4285714 0 0 0 0 0 0.005714297 0 0.005714297 0 0 0 0.2142857 0 0.005714297 0 0.2142857 0 0.2142857 0 0 0 0.005714297 0 0.005714297 0 0.7857144 0.99997 0.7857144 0 0.7857144 0 0.857143 0.9999694 0.7857144 0 0.7857144 1 0.7857144 0.99997 0.857143 0 0.857143 1 0.857143 0.9999694 0.857143 0 0.857143 0 0.8897144 1 0.8897144 0 0.8897144 1 0.8957144 1 0.8897144 0 0.8897144 1 0.8897144 1 0.8957144 0 0.8957144 1 0.8957144 1 0.8957144 0 0.8957144 1 0.9285715 0.99997 0.9285715 0 0.9285715 0 1 0.9999694 0.9285715 0 0.9285715 1 0.9285715 0.99997 1 0 1 1 1 0.9999694 1 0 1 0 0.5 1 0.5 0 0.5 1 0.6428572 1 0.5 0 0.5 1 0.5057144 1 0.6428572 0 0.6428572 1 0.6428572 1 0.6428572 0 0.6428572 1 0.5057144 1 0.5057144 0 0.5057144 1 0.7142858 1 0.5057144 0 0.5057144 1 0.5 1 0.7082858 0 0.7082858 1 0.7142858 1 0.7142858 0 0.7142858 1 0.7082858 1 0.7082858 0 0.7082858 1 0.5714286 1 0.5714286 0 0.5714286 1 0.7082858 1 0.5714286 0 0.5714286 1 0.5714286 1 0.7142858 0 0.7142858 1 0.2857143 1 0.2857143 0 0.2857143 1 0.3571429 0.9999694 0.2857143 0 0.2857143 1 0.3571429 0.9999694 0.3571429 0 0.3571429 0 0.4225715 1 0.4225715 0 0.4225715 1 0.4285714 1 0.4225715 0 0.4225715 1 0.4285714 1 0.4285714 0 0.4285714 1 0.4225715 1 0.3571429 0 0.3571429 1 0.2857143 1 0.4285714 0 0.4285714 1 0 0.99997 0 0 0 0 0.2142857 1 0 0 0 1 0.005714297 1 0.2142857 0 0.2142857 1 0.2142857 1 0.2142857 0 0.2142857 1 0 0.99997 0.005714297 0 0.005714297 1 0.005714297 1 0.005714297 0 0.005714297 1 0.7857144 0.99997 0.7857144 1 0.7857144 0 0.857143 0.9999694 0.857143 0 0.7857144 0 0.7857144 0.99997 0.7857144 0 0.857143 0 0.857143 0.9999694 0.857143 1 0.857143 0 0.8897144 1 0.8897144 0 0.8897144 0 0.8957144 1 0.8957144 0 0.8897144 0 0.8897144 1 0.8897144 0 0.8957144 0 0.8957144 1 0.8957144 0 0.8957144 0 0.9285715 0.99997 0.9285715 1 0.9285715 0 1 0.9999694 1 0 0.9285715 0 0.9285715 0.99997 0.9285715 0 1 0 1 0.9999694 1 1 1 0 0.5 1 0.5 0 0.5 0 0.6428572 1 0.6428572 0 0.5 0 0.5057144 1 0.5057144 0 0.6428572 0 0.6428572 1 0.6428572 0 0.6428572 0 0.5057144 1 0.5057144 0 0.5057144 0 0.7142858 1 0.7142858 0 0.5057144 0 0.5 1 0.5 0 0.7082858 0 0.7142858 1 0.7142858 0 0.7142858 0 0.7082858 1 0.7082858 0 0.7082858 0 0.5714286 1 0.5714286 0 0.5714286 0 0.7082858 1 0.7082858 0 0.5714286 0 0.5714286 1 0.5714286 0 0.7142858 0 0.2857143 1 0.2857143 0 0.2857143 0 0.3571429 0.9999694 0.3571429 0 0.2857143 0 0.3571429 0.9999694 0.3571429 1 0.3571429 0 0.4225715 1 0.4225715 0 0.4225715 0 0.4285714 1 0.4285714 0 0.4225715 0 0.4285714 1 0.4285714 0 0.4285714 0 0.4225715 1 0.4225715 0 0.3571429 0 0.2857143 1 0.2857143 0 0.4285714 0 0 0.99997 0 1 0 0 0.2142857 1 0.2142857 0 0 0 0.005714297 1 0.005714297 0 0.2142857 0 0.2142857 1 0.2142857 0 0.2142857 0 0 0.99997 0 0 0.005714297 0 0.005714297 1 0.005714297 0 0.005714297 0</float_array>
          <technique_common>
            <accessor source="#Text_002-mesh-map-0-array" count="384" stride="2">
              <param name="S" type="float"/>
              <param name="T" type="float"/>
            </accessor>
          </technique_common>
        </source>
        <vertices id="Text_002-mesh-vertices">
          <input semantic="POSITION" source="#Text_002-mesh-positions"/>
        </vertices>
        <triangles count="128">
          <input semantic="VERTEX" source="#Text_002-mesh-vertices" offset="0"/>
          <input semantic="NORMAL" source="#Text_002-mesh-normals" offset="1"/>
          <input semantic="TEXCOORD" source="#Text_002-mesh-map-0" offset="2" set="0"/>
          <p>5 0 0 7 0 1 4 0 2 5 1 3 6 1 4 7 1 5 9 2 6 11 2 7 8 2 8 9 2 9 10 2 10 11 2 11 1 0 12 3 0 13 0 0 14 1 1 15 2 1 16 3 1 17 13 2 18 21 2 19 12 2 20 21 2 21 23 2 22 12 2 23 21 2 24 22 2 25 23 2 26 13 2 27 20 2 28 21 2 29 13 2 30 19 2 31 20 2 32 13 2 33 14 2 34 19 2 35 14 2 36 18 2 37 19 2 38 15 2 39 18 2 40 14 2 41 17 2 42 15 2 43 16 2 44 17 2 45 18 2 46 15 2 47 25 3 48 31 3 49 24 3 50 25 4 51 30 4 52 31 4 53 29 2 54 27 2 55 28 2 56 29 2 57 26 2 58 27 2 59 25 2 60 29 2 61 30 2 62 25 2 63 26 2 64 29 2 65 33 5 66 35 5 67 32 5 68 35 2 69 37 2 70 32 2 71 35 2 72 36 2 73 37 2 74 33 6 75 34 6 76 35 6 77 43 7 78 42 7 79 45 7 80 43 7 81 45 7 82 44 7 83 47 7 84 46 7 85 49 7 86 47 7 87 49 7 88 48 7 89 39 7 90 38 7 91 41 7 92 39 7 93 41 7 94 40 7 95 51 7 96 50 7 97 59 7 98 59 7 99 50 7 100 61 7 101 59 7 102 61 7 103 60 7 104 51 7 105 59 7 106 58 7 107 51 7 108 58 7 109 57 7 110 51 7 111 57 7 112 52 7 113 52 7 114 57 7 115 56 7 116 53 7 117 52 7 118 56 7 119 55 7 120 54 7 121 53 7 122 55 7 123 53 7 124 56 7 125 63 7 126 62 7 127 69 7 128 63 7 129 69 7 130 68 7 131 67 7 132 66 7 133 65 7 134 67 7 135 65 7 136 64 7 137 63 7 138 68 7 139 67 7 140 63 7 141 67 7 142 64 7 143 71 7 144 70 7 145 73 7 146 73 7 147 70 7 148 75 7 149 73 7 150 75 7 151 74 7 152 71 7 153 73 7 154 72 7 155 5 8 156 42 8 157 43 8 158 7 9 159 42 9 160 4 9 161 5 10 162 44 10 163 6 10 164 7 11 165 44 11 166 45 11 167 8 8 168 47 8 169 9 8 170 11 9 171 46 9 172 8 9 173 9 10 174 48 10 175 10 10 176 10 11 177 49 11 178 11 11 179 1 8 180 38 8 181 39 8 182 3 9 183 38 9 184 0 9 185 1 10 186 40 10 187 2 10 188 3 11 189 40 11 190 41 11 191 12 8 192 51 8 193 13 8 194 23 9 195 50 9 196 12 9 197 21 10 198 60 10 199 22 10 200 22 11 201 61 11 202 23 11 203 20 11 204 59 11 205 21 11 206 19 9 207 58 9 208 20 9 209 13 10 210 52 10 211 14 10 212 18 11 213 57 11 214 19 11 215 14 8 216 53 8 217 15 8 218 16 8 219 55 8 220 17 8 221 15 9 222 54 9 223 16 9 224 17 10 225 56 10 226 18 10 227 24 8 228 63 8 229 25 8 230 31 9 231 62 9 232 24 9 233 31 11 234 68 11 235 69 11 236 28 8 237 67 8 238 29 8 239 27 9 240 66 9 241 28 9 242 26 11 243 65 11 244 27 11 245 29 9 246 68 9 247 30 9 248 25 10 249 64 10 250 26 10 251 33 8 252 70 8 253 71 8 254 37 9 255 70 9 256 32 9 257 35 10 258 74 10 259 36 10 260 36 11 261 75 11 262 37 11 263 33 10 264 72 10 265 34 10 266 34 11 267 73 11 268 35 11 269 5 8 270 4 8 271 42 8 272 7 9 273 45 9 274 42 9 275 5 10 276 43 10 277 44 10 278 7 11 279 6 11 280 44 11 281 8 8 282 46 8 283 47 8 284 11 9 285 49 9 286 46 9 287 9 10 288 47 10 289 48 10 290 10 11 291 48 11 292 49 11 293 1 8 294 0 8 295 38 8 296 3 9 297 41 9 298 38 9 299 1 10 300 39 10 301 40 10 302 3 11 303 2 11 304 40 11 305 12 8 306 50 8 307 51 8 308 23 9 309 61 9 310 50 9 311 21 10 312 59 10 313 60 10 314 22 11 315 60 11 316 61 11 317 20 11 318 58 11 319 59 11 320 19 9 321 57 9 322 58 9 323 13 10 324 51 10 325 52 10 326 18 11 327 56 11 328 57 11 329 14 8 330 52 8 331 53 8 332 16 8 333 54 8 334 55 8 335 15 9 336 53 9 337 54 9 338 17 10 339 55 10 340 56 10 341 24 8 342 62 8 343 63 8 344 31 9 345 69 9 346 62 9 347 31 11 348 30 11 349 68 11 350 28 8 351 66 8 352 67 8 353 27 9 354 65 9 355 66 9 356 26 11 357 64 11 358 65 11 359 29 9 360 67 9 361 68 9 362 25 10 363 63 10 364 64 10 365 33 8 366 32 8 367 70 8 368 37 9 369 75 9 370 70 9 371 35 10 372 73 10 373 74 10 374 36 11 375 74 11 376 75 11 377 33 10 378 71 10 379 72 10 380 34 11 381 72 11 382 73 11 383</p>
        </triangles>
      </mesh>
    </geometry>
  </library_geometries>
  <library_visual_scenes>
    <visual_scene id="Scene" name="Scene">
      <node id="PUSH" name="PUSH" type="NODE">
        <matrix sid="transform">1 0 0 0 0 1 0 0 0 0 1 0 0 0 0 1</matrix>
        <instance_geometry url="#Text_002-mesh" name="PUSH"/>
      </node>
    </visual_scene>
  </library_visual_scenes>
  <scene>
    <instance_visual_scene url="#Scene"/>
  </scene>
</COLLADA>