[gd_scene load_steps=6 format=2]

[ext_resource path="res://models/slot.mesh" type="ArrayMesh" id=1]

[sub_resource type="PhysicsMaterial" id=1]
friction = 0.2

[sub_resource type="ConvexPolygonShape" id=2]
margin = 0.01
points = PoolVector3Array( 0, 0, -1, 0.19509, 0.180167, -0.980785, 0.19509, 0, -0.980785, 0.19509, 0, -0.980785, 0.382683, 0.148998, -0.92388, 0.382683, 0, -0.92388, 0.382683, 0, -0.92388, 0.55557, 0.144507, -0.831469, 0.55557, 0, -0.83147, 0.55557, 0.144507, -0.831469, 0.707107, 0, -0.707107, 0.55557, 0, -0.83147, 0.707107, 0.166867, -0.707107, 0.83147, 0, -0.55557, 0.707107, 0, -0.707107, 0.83147, 0.215218, -0.55557, 0.92388, 0, -0.382683, 0.83147, 0, -0.55557, 0.92388, 0.287703, -0.382683, 0.980785, 0, -0.19509, 0.92388, 0, -0.382683, 0.980785, 0.381536, -0.19509, 1, 0, 0, 0.980785, 0, -0.19509, 1, 0, 0, 0.980785, 0.381536, 0.19509, 0.980785, 0, 0.19509, 0.980785, 0, 0.19509, 0.92388, 0.287703, 0.382683, 0.92388, 0, 0.382683, 0.92388, 0, 0.382683, 0.83147, 0.215218, 0.55557, 0.83147, 0, 0.55557, 0.83147, 0, 0.55557, 0.707107, 0.166866, 0.707107, 0.707107, 0, 0.707107, 0.707107, 0, 0.707107, 0.55557, 0.144507, 0.83147, 0.55557, 0, 0.83147, 0.55557, 0.144507, 0.83147, 0.382683, 0, 0.92388, 0.55557, 0, 0.83147, 0.382683, 0.148998, 0.92388, 0.19509, 0, 0.980785, 0.382683, 0, 0.92388, 0.19509, 0.180167, 0.980785, -3.25841e-07, 0, 1, 0.19509, 0, 0.980785, -3.25841e-07, 0.236818, 1, -0.195091, 0, 0.980785, -3.25841e-07, 0, 1, -0.195091, 0.316772, 0.980785, -0.382684, 0, 0.923879, -0.195091, 0, 0.980785, -0.382684, 0.416956, 0.923879, -0.555571, 0.4542, 0.831469, -0.555571, 0, 0.831469, -0.555571, 0, 0.831469, -0.707107, 0.348093, 0.707106, -0.707107, 0, 0.707106, -0.707107, 0, 0.707106, -0.83147, 0.261014, 0.55557, -0.83147, 0, 0.55557, -0.83147, 0, 0.55557, -0.92388, 0.196307, 0.382683, -0.92388, 0, 0.382683, -0.92388, 0, 0.382683, -0.980785, 0.156462, 0.195089, -0.980785, 0, 0.195089, -0.980785, 0, 0.195089, -1, 0.143008, -9.65599e-07, -1, 0, -9.65599e-07, -1, 0.143008, -9.65599e-07, -0.980785, 0, -0.195091, -1, 0, -9.65599e-07, -0.980785, 0.156462, -0.195091, -0.923879, 0, -0.382684, -0.980785, 0, -0.195091, -0.923879, 0.196308, -0.382684, -0.831469, 0, -0.555571, -0.923879, 0, -0.382684, -0.831469, 0.261014, -0.555571, -0.707106, 0, -0.707108, -0.831469, 0, -0.555571, -0.707106, 0.348094, -0.707108, -0.555569, 0, -0.83147, -0.707106, 0, -0.707108, -0.555569, 0.454201, -0.83147, -0.497859, 0.494611, -0.862317, -0.382682, 0.416955, -0.92388, -0.382682, 0, -0.92388, -0.195089, 0.31677, -0.980786, -0.195089, 0, -0.980786, -0.195089, 0, -0.980786, 0, 0.236817, -1, 0, 0, -1, 0.980785, 0, -0.19509, 0.19509, 0, 0.980785, -0.980785, 0, 0.195089, 0.92388, 0.287703, 0.382683, 0.980785, 0.381536, 0.19509, 0.245081, 0.5, 0.424493, -0.490162, 0.5, 0.848986, -0.490162, 0.5, 0, -0.707107, 0.348093, 0.707106, 0.980785, 0.381536, -0.19509, 0.92388, 0.287703, -0.382683, 0.245081, 0.5, -0.424493, 0.245081, 0.5, 0.424493, -0.490162, 0.5, 0, -0.490162, 0.5, 0.848986, -0.490162, 0.5, -0.848986, 0.245081, 0.5, -0.424493, 0.980324, 0.5, -1.19209e-07, 0, 0, -1, 0, 0.236817, -1, 0.19509, 0.180167, -0.980785, 0.19509, 0.180167, -0.980785, 0.382683, 0, -0.92388, 0.382683, 0.148998, -0.92388, 0.55557, 0.144507, -0.831469, 0.55557, 0.144507, -0.831469, 0.707107, 0.166867, -0.707107, 0.707107, 0, -0.707107, 0.707107, 0.166867, -0.707107, 0.83147, 0.215218, -0.55557, 0.83147, 0, -0.55557, 0.83147, 0.215218, -0.55557, 0.92388, 0.287703, -0.382683, 0.92388, 0, -0.382683, 0.92388, 0.287703, -0.382683, 0.980785, 0.381536, -0.19509, 0.980785, 0, -0.19509, 0.980785, 0.381536, -0.19509, 1, 0.493111, 0, 1, 0, 0, 1, 0, 0, 1, 0.493111, 0, 0.980785, 0.381536, 0.19509, 0.980785, 0, 0.19509, 0.980785, 0.381536, 0.19509, 0.92388, 0.287703, 0.382683, 0.92388, 0, 0.382683, 0.92388, 0.287703, 0.382683, 0.83147, 0.215218, 0.55557, 0.83147, 0.215218, 0.55557, 0.707107, 0, 0.707107, 0.707107, 0.166866, 0.707107, 0.55557, 0.144507, 0.83147, 0.55557, 0.144507, 0.83147, 0.382683, 0.148998, 0.92388, 0.382683, 0, 0.92388, 0.382683, 0.148998, 0.92388, 0.19509, 0.180167, 0.980785, 0.19509, 0, 0.980785, 0.19509, 0.180167, 0.980785, -3.25841e-07, 0.236818, 1, -3.25841e-07, 0, 1, -0.195091, 0.316772, 0.980785, -0.382684, 0.416956, 0.923879, -0.382684, 0, 0.923879, -0.382684, 0.416956, 0.923879, -0.497859, 0.494611, 0.862317, -0.555571, 0.4542, 0.831469, -0.555571, 0, 0.831469, -0.555571, 0.4542, 0.831469, -0.707107, 0.348093, 0.707106, -0.707107, 0, 0.707106, -0.707107, 0.348093, 0.707106, -0.83147, 0.261014, 0.55557, -0.83147, 0.261014, 0.55557, -0.92388, 0, 0.382683, -0.92388, 0.196307, 0.382683, -0.980785, 0.156462, 0.195089, -0.980785, 0, 0.195089, -0.980785, 0.156462, 0.195089, -1, 0.143008, -9.65599e-07, -1, 0.143008, -9.65599e-07, -0.980785, 0.156462, -0.195091, -0.980785, 0, -0.195091, -0.980785, 0.156462, -0.195091, -0.923879, 0.196308, -0.382684, -0.923879, 0, -0.382684, -0.923879, 0.196308, -0.382684, -0.831469, 0.261014, -0.555571, -0.831469, 0, -0.555571, -0.831469, 0.261014, -0.555571, -0.707106, 0.348094, -0.707108, -0.707106, 0, -0.707108, -0.707106, 0.348094, -0.707108, -0.555569, 0.454201, -0.83147, -0.555569, 0, -0.83147, -0.382682, 0, -0.92388, -0.555569, 0, -0.83147, -0.382682, 0.416955, -0.92388, -0.555569, 0, -0.83147, -0.555569, 0.454201, -0.83147, -0.382682, 0.416955, -0.92388, -0.382682, 0, -0.92388, -0.382682, 0.416955, -0.92388, -0.195089, 0.31677, -0.980786, -0.195089, 0, -0.980786, -0.195089, 0.31677, -0.980786, 0, 0.236817, -1, -0.195089, 0, -0.980786, 0, 0, -1, 0.19509, 0, -0.980785, 0.382683, 0, -0.92388, 0.55557, 0, -0.83147, 0.707107, 0, -0.707107, 0.83147, 0, -0.55557, 0.92388, 0, -0.382683, 1, 0, 0, 0.980785, 0, 0.19509, 0.92388, 0, 0.382683, 0.83147, 0, 0.55557, 0.707107, 0, 0.707107, 0.55557, 0, 0.83147, 0.382683, 0, 0.92388, -3.25841e-07, 0, 1, -0.195091, 0, 0.980785, -0.382684, 0, 0.923879, -0.555571, 0, 0.831469, -0.707107, 0, 0.707106, -0.83147, 0, 0.55557, -0.92388, 0, 0.382683, -1, 0, -9.65599e-07, -0.980785, 0, -0.195091, -0.923879, 0, -0.382684, -0.831469, 0, -0.555571, -0.707106, 0, -0.707108, -0.555569, 0, -0.83147, -0.382682, 0, -0.92388, 1, 0.493111, 0, 0.980324, 0.5, -1.19209e-07, 0.980785, 0.381536, 0.19509, 0.980324, 0.5, -1.19209e-07, 0.245081, 0.5, 0.424493, 0.980785, 0.381536, 0.19509, 0.245081, 0.5, 0.424493, -0.490162, 0.5, 0.848986, -0.382684, 0.416956, 0.923879, -0.490162, 0.5, 0.848986, -0.497859, 0.494611, 0.862317, -0.382684, 0.416956, 0.923879, -0.382684, 0.416956, 0.923879, -0.195091, 0.316772, 0.980785, 0.245081, 0.5, 0.424493, -0.195091, 0.316772, 0.980785, -3.25841e-07, 0.236818, 1, 0.245081, 0.5, 0.424493, -3.25841e-07, 0.236818, 1, 0.19509, 0.180167, 0.980785, 0.245081, 0.5, 0.424493, 0.19509, 0.180167, 0.980785, 0.382683, 0.148998, 0.92388, 0.245081, 0.5, 0.424493, 0.382683, 0.148998, 0.92388, 0.55557, 0.144507, 0.83147, 0.245081, 0.5, 0.424493, 0.55557, 0.144507, 0.83147, 0.707107, 0.166866, 0.707107, 0.245081, 0.5, 0.424493, 0.707107, 0.166866, 0.707107, 0.83147, 0.215218, 0.55557, 0.245081, 0.5, 0.424493, 0.83147, 0.215218, 0.55557, 0.92388, 0.287703, 0.382683, 0.245081, 0.5, 0.424493, -0.490162, 0.5, -0.848986, -0.707106, 0.348094, -0.707108, -0.490162, 0.5, -0.848986, -0.497859, 0.494611, -0.862317, -0.555569, 0.454201, -0.83147, -0.707106, 0.348094, -0.707108, -0.490162, 0.5, -0.848986, -0.555569, 0.454201, -0.83147, -0.707106, 0.348094, -0.707108, -0.831469, 0.261014, -0.555571, -0.490162, 0.5, 0, -0.831469, 0.261014, -0.555571, -0.923879, 0.196308, -0.382684, -0.490162, 0.5, 0, -0.923879, 0.196308, -0.382684, -0.980785, 0.156462, -0.195091, -0.490162, 0.5, 0, -0.980785, 0.156462, -0.195091, -1, 0.143008, -9.65599e-07, -1, 0.143008, -9.65599e-07, -0.980785, 0.156462, 0.195089, -0.490162, 0.5, 0, -0.980785, 0.156462, 0.195089, -0.92388, 0.196307, 0.382683, -0.490162, 0.5, 0, -0.92388, 0.196307, 0.382683, -0.83147, 0.261014, 0.55557, -0.490162, 0.5, 0, -0.83147, 0.261014, 0.55557, -0.707107, 0.348093, 0.707106, -0.707107, 0.348093, 0.707106, -0.555571, 0.4542, 0.831469, -0.490162, 0.5, 0.848986, -0.555571, 0.4542, 0.831469, -0.497859, 0.494611, 0.862317, -0.490162, 0.5, 0.848986, -0.382682, 0.416955, -0.92388, -0.497859, 0.494611, -0.862317, -0.490162, 0.5, -0.848986, 0.245081, 0.5, -0.424493, 0.980324, 0.5, -1.19209e-07, 0.980785, 0.381536, -0.19509, 0.980324, 0.5, -1.19209e-07, 1, 0.493111, 0, 0.980785, 0.381536, -0.19509, -0.382682, 0.416955, -0.92388, -0.490162, 0.5, -0.848986, 0.245081, 0.5, -0.424493, 0, 0.236817, -1, -0.195089, 0.31677, -0.980786, 0.245081, 0.5, -0.424493, -0.195089, 0.31677, -0.980786, -0.382682, 0.416955, -0.92388, 0.245081, 0.5, -0.424493, 0.382683, 0.148998, -0.92388, 0.19509, 0.180167, -0.980785, 0.245081, 0.5, -0.424493, 0.19509, 0.180167, -0.980785, 0, 0.236817, -1, 0.245081, 0.5, -0.424493, 0.707107, 0.166867, -0.707107, 0.55557, 0.144507, -0.831469, 0.245081, 0.5, -0.424493, 0.55557, 0.144507, -0.831469, 0.382683, 0.148998, -0.92388, 0.245081, 0.5, -0.424493, 0.92388, 0.287703, -0.382683, 0.83147, 0.215218, -0.55557, 0.245081, 0.5, -0.424493, 0.83147, 0.215218, -0.55557, 0.707107, 0.166867, -0.707107, 0.245081, 0.5, -0.424493 )

[sub_resource type="SphereShape" id=3]
radius = 0.478084

[sub_resource type="SpatialMaterial" id=4]
albedo_color = Color( 0.239216, 0.239216, 0.239216, 1 )

[node name="slot" type="StaticBody"]
physics_material_override = SubResource( 1 )

[node name="coll" type="CollisionShape" parent="."]
shape = SubResource( 2 )

[node name="pin" type="CollisionShape" parent="."]
transform = Transform( 1, 0, 0, 0, 1, 0, 0, 0, 1, 0, 0.52189, 0 )
shape = SubResource( 3 )

[node name="mesh" type="MeshInstance" parent="."]
material_override = SubResource( 4 )
mesh = ExtResource( 1 )
material/0 = null
